<?xml version="1.0" encoding="utf-8"?>
<!-- Generator: Adobe Illustrator 19.2.1, SVG Export Plug-In . SVG Version: 6.00 Build 0)  -->
<svg version="1.1" id="twitter" xmlns="http://www.w3.org/2000/svg" xmlns:xlink="http://www.w3.org/1999/xlink" x="0px" y="0px"
	 width="36.7px" height="30px" viewBox="0 0 36.7 30" style="enable-background:new 0 0 36.7 30;" xml:space="preserve">
<style type="text/css">
	.st0{fill:#FFFFFF;}
</style>
<path id="tt" class="st0" d="M22.9,0.4c-3.3,1.3-5.4,4.3-5.1,7.7l0.1,1.3l-1.4-0.1C11.7,8.6,7.4,6.4,3.9,3L2.2,1.3L1.7,2.5
	c-0.9,2.9-0.3,5.8,1.7,7.9c1,1.1,0.8,1.3-1,0.6c-0.7-0.2-1.1-0.3-1.3-0.3c-0.2,0.2,0.5,2.6,0.9,3.5c0.7,1.4,2.1,2.6,3.7,3.4L7,18.2
	H5.5c-1.5,0-1.5,0-1.4,0.6c0.6,1.7,2.6,3.5,4.9,4.3l1.6,0.6l-1.4,0.8c-2.1,1.3-4.6,1.9-7.1,1.9C1,26.4,0,26.6,0,26.7
	c0,0.2,3.2,1.7,5.1,2.4c5.6,1.7,12.4,1,17.4-1.9c3.5-2.1,7.1-6.3,8.8-10.4c0.9-2.2,1.8-6.2,1.8-8c0-1.3,0.1-1.4,1.6-2.9
	C35.7,5,36.5,4,36.6,3.8c0.2-0.5,0.2-0.5-1.1,0c-2.3,0.8-2.5,0.7-1.5-0.5c0.8-0.8,1.8-2.4,1.8-2.9c0-0.1-0.3,0-0.8,0.3
	c-0.5,0.2-1.5,0.7-2.3,0.9l-1.4,0.5l-1.5-0.8c-0.7-0.5-1.7-1-2.3-1.1C26.2-0.1,24.1-0.1,22.9,0.4z"/>
</svg>
